[
    {
        "class": "list-1",
        "header": "Needs Analysis",
        "color": "#CB2B99",
        "cardList":[
            {
              "class": "card-steps--reverse",
              "src":"/assets/images/analytics-team_flatline.png",
              "number": "1",
              "color": "#CB2B99",
              "title": "Diagnose Existing Processes and Jobs",
              "content": "",
              "list": [
                {
                  "text": "Understand strategic goals, key challenges and opportunities for Job Redesign"
                },
                {
                  "text": "Understand key challenges and pain points in existing HR processes"
                },
                {
                  "text": "Develop a roadmap for the Job Redesign effort"
                }
              ]
            }
          ]
    },
    {
        "class": "list-2",
        "header": "Job Analysis & Redesign",
        "color": "#554194",
        "cardList":[
            {
              "class": "",
              "src":"/assets/images/analytics-process_flatline.png",
              "number": "2",
              "color": "#554194",
              "title": "Select Job Redesign Intervention",
              "content": "<p>Conduct job analysis to understand work processes and impacted job roles that have the largest opportunity for redesign</p><p>Identify possible modifications through:</p>",
              "line1": "Conduct job analysis to understand work processes and impacted job roles that have the largest opportunity for redesign",
              "line2": "Identify possible modifications through:",
              "list": [
                {
                  "text": "Job tasks and responsibilities"
                },
                {
                  "text": "Work flows"
                },
                {
                  "text": "Physical working environment"
                },
                {
                  "text": "Equipment, tools and/ or technology application"
                }
              ]
            },
            {
              "class": "",
              "src":"/assets/images/analytics-process-pc_flatline.png",
              "number": "3",
              "color": "#554194",
              "title": "Identify Priority and Impact",
              "content": "<p>Once Job Redesign interventions are shortlisted, prioritise the modifications based on the resources required, impact to business as well as impact on the workforce</p>",
              "line1": "Once Job Redesign interventions are shortlisted, prioritise the modifications based on the resources required, impact to business as well as impact on the workforce"
            }
          ]
    },
    {
        "class": "list-3",
        "header": "Transition Planning & Implementation",
        "color": "#276EF1",
        "cardList":[
          {
            "class":"card-steps--reverse",
            "src":"/assets/images/analytics-report_flatline.png",
            "number": "4",
            "color": "#276EF1",
            "title": "Develop Action Plan",
            "list": [
              {
                "text": "Map out a list of key activities to successfully roll out the Job Redesign effort"
              },
              {
                "text": "Assign a person-in-charge and establish timelines to ensure success and sustainability of Job Redesign efforts"
              }
            ]
          },
          {
            "class":"card-steps--reverse",
            "src":"/assets/images/analytics-progress_flatline.png",
            "number": "5",
            "color": "#276EF1",
            "title": "Conduct Job Redesign Implementation",
            "list": [
              {
                "text": "Pilot Job Redesign recommendations"
              },
              {
                "text": "Conduct job shadowing/activity analysis to observe the redesigned job roles and adopted changes"
              }
            ]
          },
          {
            "class":"card-steps--reverse",
            "src":"/assets/images/analytics-checklist_flatline.png",
            "number": "6",
            "color": "#276EF1",
            "title": "Post-Job Redesign Implementation Analysis",
            "list": [
              {
                "text": "Assess effectiveness through key metrics and Key Performance Indicators (KPIs):",
                "list":[
                  {
                    "text": "Increase in productivity (e.g. decrease in manning ratio, sales per employee, value-add per worker)"
                  },
                  {
                    "text": "Customer experience Improvement"
                  }
                ]
              }
            ]
          }
        ]
    }
]
